\relax 
\providecommand\hyper@newdestlabel[2]{}
\@writefile{toc}{\contentsline {chapter}{\numberline {2}Firmware}{5}{chapter.2}}
\@writefile{lof}{\addvspace {10\p@ }}
\@writefile{lot}{\addvspace {10\p@ }}
\@writefile{toc}{\contentsline {section}{\numberline {2.1}Configuring the GPVMM Board}{5}{section.2.1}}
\@writefile{lof}{\contentsline {figure}{\numberline {2.1}{\ignorespaces Select Hardware Manager}}{5}{figure.2.1}}
\newlabel{fig:01}{{2.1}{5}{Select Hardware Manager}{figure.2.1}{}}
\@writefile{lof}{\contentsline {figure}{\numberline {2.2}{\ignorespaces Open Target}}{6}{figure.2.2}}
\newlabel{fig:02}{{2.2}{6}{Open Target}{figure.2.2}{}}
\@writefile{lof}{\contentsline {figure}{\numberline {2.3}{\ignorespaces Programming the FPGA directly}}{6}{figure.2.3}}
\newlabel{fig:03a}{{2.3}{6}{Programming the FPGA directly}{figure.2.3}{}}
\@writefile{lof}{\contentsline {figure}{\numberline {2.4}{\ignorespaces Selecting the bitfile}}{7}{figure.2.4}}
\newlabel{fig:04a}{{2.4}{7}{Selecting the bitfile}{figure.2.4}{}}
\@writefile{lof}{\contentsline {figure}{\numberline {2.5}{\ignorespaces First step towards programming the flash memory}}{7}{figure.2.5}}
\newlabel{fig:03b}{{2.5}{7}{First step towards programming the flash memory}{figure.2.5}{}}
\@writefile{toc}{\contentsline {section}{\numberline {2.2}The VMM Readout/Configuration Firmware}{7}{section.2.2}}
\@writefile{lof}{\contentsline {figure}{\numberline {2.6}{\ignorespaces Selecting the correct flash memory}}{8}{figure.2.6}}
\newlabel{fig:04b}{{2.6}{8}{Selecting the correct flash memory}{figure.2.6}{}}
\@writefile{lof}{\contentsline {figure}{\numberline {2.7}{\ignorespaces Programming the flash memory}}{8}{figure.2.7}}
\newlabel{fig:04d}{{2.7}{8}{Programming the flash memory}{figure.2.7}{}}
\@writefile{toc}{\contentsline {subsubsection}{CKBC/CKTP, xADC}{8}{section*.2}}
\@writefile{toc}{\contentsline {subsubsection}{Dynamic IP Changing}{8}{section*.3}}
\@writefile{toc}{\contentsline {subsubsection}{VMM Configuration}{9}{section*.4}}
\@writefile{toc}{\contentsline {section}{\numberline {2.3}Reading-Out the VMM}{9}{section.2.3}}
\@writefile{toc}{\contentsline {subsection}{\numberline {2.3.1}Continuous Mode}{9}{subsection.2.3.1}}
\@writefile{toc}{\contentsline {subsubsection}{Continuous Mode - Fixed Window}{9}{section*.5}}
\@writefile{toc}{\contentsline {subsection}{\numberline {2.3.2}Level0 Mode}{9}{subsection.2.3.2}}
\@writefile{toc}{\contentsline {section}{\numberline {2.4}Other Guidelines and Tips}{10}{section.2.4}}
\@writefile{lof}{\contentsline {figure}{\numberline {2.8}{\ignorespaces Example timing diagram of the L0 matching in Pulser mode. Here, latency = $30$, and the rollover and l0offset registers have a difference of $26$. The integration time is $100 \, \mathrm  {ns}$, thus shifting the actual pulse forward by $4$ CKBCs with respect to the rising edge of the CKTP, where the latency is being measured from. This configuration will yield the CKTP data correctly.}}{11}{figure.2.8}}
\newlabel{fig:cktpL0}{{2.8}{11}{Example timing diagram of the L0 matching in Pulser mode. Here, latency = $30$, and the rollover and l0offset registers have a difference of $26$. The integration time is $100 \, \mathrm {ns}$, thus shifting the actual pulse forward by $4$ CKBCs with respect to the rising edge of the CKTP, where the latency is being measured from. This configuration will yield the CKTP data correctly}{figure.2.8}{}}
\@writefile{lof}{\contentsline {figure}{\numberline {2.9}{\ignorespaces Example timing diagram of the L0 matching in External Trigger mode. At $t_0$, a particle passes through the chamber and a scintillator coincidence occurs. After $200 \, \mathrm  {ns}$, the trigger from the coincidence is received by the FPGA. This fixed latency depends on the trigger scheme of each experimental setup. The FPGA then waits for $30$ CKBCs before asserting the L0 signal. The VMM gets the L0, "goes back" by $34$ cycles and matches the data. Here, the latency set at the GUI is $30$, and the \emph  {rollover} and \emph  {l0offset} VMM registers have a difference of $34$. The integration time is $100 \, \mathrm  {ns}$, thus shifting the actual pulse forward by $4$ CKBCs with respect to $t_0$. This configuration will yield the incident particle data correctly.}}{11}{figure.2.9}}
\newlabel{fig:extL0}{{2.9}{11}{Example timing diagram of the L0 matching in External Trigger mode. At $t_0$, a particle passes through the chamber and a scintillator coincidence occurs. After $200 \, \mathrm {ns}$, the trigger from the coincidence is received by the FPGA. This fixed latency depends on the trigger scheme of each experimental setup. The FPGA then waits for $30$ CKBCs before asserting the L0 signal. The VMM gets the L0, "goes back" by $34$ cycles and matches the data. Here, the latency set at the GUI is $30$, and the \e {rollover} and \e {l0offset} VMM registers have a difference of $34$. The integration time is $100 \, \mathrm {ns}$, thus shifting the actual pulse forward by $4$ CKBCs with respect to $t_0$. This configuration will yield the incident particle data correctly}{figure.2.9}{}}
\@setckpt{firmwareChapter}{
\setcounter{page}{12}
\setcounter{equation}{0}
\setcounter{enumi}{0}
\setcounter{enumii}{0}
\setcounter{enumiii}{0}
\setcounter{enumiv}{0}
\setcounter{footnote}{1}
\setcounter{mpfootnote}{0}
\setcounter{part}{0}
\setcounter{chapter}{2}
\setcounter{section}{4}
\setcounter{subsection}{0}
\setcounter{subsubsection}{0}
\setcounter{paragraph}{0}
\setcounter{subparagraph}{0}
\setcounter{figure}{9}
\setcounter{table}{0}
\setcounter{linenumber}{1}
\setcounter{LN@truepage}{12}
\setcounter{AM@survey}{0}
\setcounter{Item}{0}
\setcounter{Hfootnote}{3}
\setcounter{bookmark@seq@number}{8}
\setcounter{section@level}{1}
}
