\relax 
\providecommand\hyper@newdestlabel[2]{}
\@writefile{toc}{\contentsline {chapter}{\numberline {1}GPVMM Board}{2}{chapter.1}}
\@writefile{lof}{\addvspace {10\p@ }}
\@writefile{lot}{\addvspace {10\p@ }}
\@writefile{lof}{\contentsline {figure}{\numberline {1.1}{\ignorespaces GPVMM v1.0 board}}{2}{figure.1.1}}
\newlabel{gpvmm}{{1.1}{2}{GPVMM v1.0 board}{figure.1.1}{}}
\@writefile{lof}{\contentsline {figure}{\numberline {1.2}{\ignorespaces ESD Protection of GPVMM board}}{3}{figure.1.2}}
\newlabel{esd}{{1.2}{3}{ESD Protection of GPVMM board}{figure.1.2}{}}
\@writefile{lof}{\contentsline {figure}{\numberline {1.3}{\ignorespaces Input channel and header output mapping of GPVMM board}}{3}{figure.1.3}}
\newlabel{gpvmm2}{{1.3}{3}{Input channel and header output mapping of GPVMM board}{figure.1.3}{}}
\@writefile{lof}{\contentsline {figure}{\numberline {1.4}{\ignorespaces The schematic pinout of uHDMI and miniSAS}}{4}{figure.1.4}}
\newlabel{miniSASuHDMI}{{1.4}{4}{The schematic pinout of uHDMI and miniSAS}{figure.1.4}{}}
\@setckpt{gpvmmChapter}{
\setcounter{page}{5}
\setcounter{equation}{0}
\setcounter{enumi}{0}
\setcounter{enumii}{0}
\setcounter{enumiii}{0}
\setcounter{enumiv}{0}
\setcounter{footnote}{2}
\setcounter{mpfootnote}{0}
\setcounter{part}{0}
\setcounter{chapter}{1}
\setcounter{section}{0}
\setcounter{subsection}{0}
\setcounter{subsubsection}{0}
\setcounter{paragraph}{0}
\setcounter{subparagraph}{0}
\setcounter{figure}{4}
\setcounter{table}{0}
\setcounter{linenumber}{1}
\setcounter{LN@truepage}{5}
\setcounter{AM@survey}{0}
\setcounter{Item}{0}
\setcounter{Hfootnote}{2}
\setcounter{bookmark@seq@number}{1}
\setcounter{section@level}{0}
}
