\relax 
\providecommand\hyper@newdestlabel[2]{}
\@writefile{toc}{\contentsline {chapter}{\numberline {3}Software}{12}{chapter.3}}
\@writefile{lof}{\addvspace {10\p@ }}
\@writefile{lot}{\addvspace {10\p@ }}
\@writefile{toc}{\contentsline {section}{\numberline {3.1}Installation}{12}{section.3.1}}
\@writefile{toc}{\contentsline {section}{\numberline {3.2}Overview}{13}{section.3.2}}
\@writefile{lof}{\contentsline {figure}{\numberline {3.1}{\ignorespaces Startup of VERSO interface}}{13}{figure.3.1}}
\newlabel{versoOverview}{{3.1}{13}{Startup of VERSO interface}{figure.3.1}{}}
\@writefile{lof}{\contentsline {figure}{\numberline {3.2}{\ignorespaces Global Registers I \& II Tabs}}{16}{figure.3.2}}
\newlabel{registers}{{3.2}{16}{Global Registers I \& II Tabs}{figure.3.2}{}}
\@writefile{lof}{\contentsline {figure}{\numberline {3.3}{\ignorespaces Channel Registers Tab}}{16}{figure.3.3}}
\newlabel{channels}{{3.3}{16}{Channel Registers Tab}{figure.3.3}{}}
\@writefile{lof}{\contentsline {figure}{\numberline {3.4}{\ignorespaces Calibration Tab}}{17}{figure.3.4}}
\newlabel{registers}{{3.4}{17}{Calibration Tab}{figure.3.4}{}}
\@writefile{toc}{\contentsline {chapter}{\numberline {4}Running Procedure}{18}{chapter.4}}
\@writefile{lof}{\addvspace {10\p@ }}
\@writefile{lot}{\addvspace {10\p@ }}
\@writefile{toc}{\contentsline {section}{\numberline {4.1}Communication}{18}{section.4.1}}
\@writefile{toc}{\contentsline {section}{\numberline {4.2}Setup}{19}{section.4.2}}
\@writefile{lof}{\contentsline {figure}{\numberline {4.1}{\ignorespaces Experimental Setup}}{19}{figure.4.1}}
\newlabel{setup}{{4.1}{19}{Experimental Setup}{figure.4.1}{}}
\newlabel{subsec:xadc}{{4.2}{20}{xADC Calibration Run}{section*.21}{}}
\@writefile{lof}{\contentsline {figure}{\numberline {4.2}{\ignorespaces Monitor Output of VMM channel through Internal Trigger Mode (Pulser)}}{21}{figure.4.2}}
\@writefile{toc}{\contentsline {chapter}{\numberline {A}VMM3 Registers}{23}{appendix.A}}
\@writefile{lof}{\addvspace {10\p@ }}
\@writefile{lot}{\addvspace {10\p@ }}
\@writefile{lof}{\contentsline {figure}{\numberline {A.1}{\ignorespaces Global Configuration Registers of the VMM}}{23}{figure.A.1}}
\@writefile{lof}{\contentsline {figure}{\numberline {A.2}{\ignorespaces Global Configuration Registers of the VMM (continued)}}{24}{figure.A.2}}
\@writefile{lof}{\contentsline {figure}{\numberline {A.3}{\ignorespaces Channel Configuration Registers of the VMM}}{24}{figure.A.3}}
\@setckpt{softwareChapter}{
\setcounter{page}{25}
\setcounter{equation}{0}
\setcounter{enumi}{0}
\setcounter{enumii}{0}
\setcounter{enumiii}{0}
\setcounter{enumiv}{0}
\setcounter{footnote}{0}
\setcounter{mpfootnote}{0}
\setcounter{part}{0}
\setcounter{chapter}{1}
\setcounter{section}{0}
\setcounter{subsection}{0}
\setcounter{subsubsection}{0}
\setcounter{paragraph}{0}
\setcounter{subparagraph}{0}
\setcounter{figure}{3}
\setcounter{table}{0}
\setcounter{linenumber}{1}
\setcounter{LN@truepage}{25}
\setcounter{AM@survey}{0}
\setcounter{Item}{0}
\setcounter{Hfootnote}{4}
\setcounter{bookmark@seq@number}{15}
\setcounter{section@level}{1}
}
